Chapter6-4_Clustering_Assignment
…
# Read dataset
# Wrong csv reader in thai langguage
# data.set = read.csv(curPath, header = TRUE, sep = ",", fileEncoding = "UTF-8")

# Use readr library to read dataset file.
library(readr)
data.set <- read_csv(curPath, locale = locale(encoding = "UTF-8"), show_col_types = FALSE)

New names:
• `vitamin` -> `vitamin...26`
• `vitamin` -> `vitamin...49`

data.set

# A tibble: 30 × 51
      No productName          volume price pricePerVolume   sum oatMilk cornMilk
   <dbl> <chr>                 <dbl> <dbl>          <dbl> <dbl>   <dbl>    <dbl>
 1     1 วีฟาร์ม นมข้าวโพด          250  25           0.1    100      NA       98.5
 2     2 กู๊ดเมท นมข้าวโอ๊ต รสงา…    180  25           0.139   99.2    93.7     NA  
 3     3 กูลิโกะ อัลมอนก์ โคกะ      1000 119           0.119  100      NA       NA  
 4     4 เอ็มมิลค์ นมพลาสเจอร์ไรส์    180  20           0.111  100      NA       NA  
 5     5 แอนลีน โยเกิร์ต รสผลไม้…    180  12           0.0667 100      NA       NA  
 6     6 Almond Breeze Matcha    946  22.7         0.024   99.9    NA       NA  
 7     7 แอนมัม มาเทอร์น่า นมผง…    180  21           0.117  100      NA       NA  
 8     8 ไวตามิล สูตรออริจินัล        300  10           0.0333  98.4    NA       NA  
 9     9 ไวตามิล สูตรน้ำตาลน้อย      200  12.3         0.0617  99.8    NA       NA  
10    10 แลกตาซอย สูตรออริจินัล      500  19           0.038   99.9    NA       NA  
# ℹ 20 more rows
# ℹ 43 more variables: almodMilk <dbl>, soyMilk <dbl>, barleyMaltPowder <dbl>,
#   abMaltExtract <dbl>, cowMilk <dbl>, cowMilkLowFat <dbl>,
#   cowMilkLactoseFree <dbl>, yoghurtFatFree <dbl>, skimMilkPowder <dbl>,
#   `Low Fat formula milk` <dbl>, blackSesame <dbl>, sugar <dbl>,
#   lactose <dbl>, chocolate <dbl>, matchaPowder <dbl>, honey <dbl>,
#   sucrose <dbl>, vitamin...26 <dbl>, canolaOil <dbl>, soybeanOil <dbl>, …
…
